{
  "_comment": "~/.config/nvim/coc-settings.json",
  "suggest.noselect": false,
  "snippets.ultisnips.pythonPrompt": false,
  "coc.preferences.formatOnSaveFiletypes": [
    "javascript",
    "typescript",
    "typescriptreact",
    "json",
    "javascriptreact",
    "typescript.tsx",
    "graphql",
    "go"
  ]
}
